{
    "version": "0.0.1",
    "plugins": {
        "else@1.0.0": "https://gitlab.com/gesellkammer/cspm-data/-/blob/master/plugins/emplugins/v1.0.0/manifests/else.cspm.json",
        "poly@1.0.0": "https://gitlab.com/gesellkammer/cspm-data/-/blob/master/plugins/emplugins/v1.0.0/manifests/poly.cspm.json",
    }
}
